%YAML 1.1
%TAG !u! tag:unity3d.com,2011:
--- !u!1045 &1
EditorBuildSettings:
  m_ObjectHideFlags: 0
  serializedVersion: 2
  m_Scenes:
  - enabled: 1
    path: Assets/Scenes/SampleScene.unity
    guid: d1c3109bdb54ad54c8a2b2838528e640
  m_configObjects:
    UnityEditor.XR.ARCore.ARCoreSettings: {fileID: 11400000, guid: 4d7ea71b5a936f949bb43bc830733123, type: 2}
    com.unity.xr.management.loader_settings: {fileID: 11400000, guid: ffe9b73fcfc066c46ad9efba2c29ac62, type: 2}
